03:10:47 - ::1:
SQLSTATE[42000]: Syntax error or access violation: 1064 You have an error in your SQL syntax; check the manual that corresponds to your MySQL server version for the right syntax to use near 'FROM MODELES WHERE NOM LIKE"x%" AND MARQUE_ID =38' at line 1
#0 /Applications/MAMP/htdocs/PPE_NEW/App/Core/Model/ModelDAO.php(25): PDO->query('SELECT  FROM MO...')
#1 /Applications/MAMP/htdocs/PPE_NEW/App/Core/Controller/CustomerApiController.php(29): ModelDao->find(0, Object(Search))
#2 [internal function]: CustomerApiController->get_model('014a0e23CL52', 'x', 38)
#3 /Applications/MAMP/htdocs/PPE_NEW/App/Core/Controller/Dispatcher.php(58): ReflectionMethod->invokeArgs(Object(CustomerApiController), Array)
#4 /Applications/MAMP/htdocs/PPE_NEW/main.php(41): Dispatcher::deliver()
#5 {main}

03:10:21 - ::1:
SQLSTATE[42000]: Syntax error or access violation: 1064 You have an error in your SQL syntax; check the manual that corresponds to your MySQL server version for the right syntax to use near 'FROM MODELES WHERE NOM LIKE"x%" AND MARQUE_ID =38' at line 1
#0 /Applications/MAMP/htdocs/PPE_NEW/App/Core/Model/ModelDAO.php(25): PDO->query('SELECT  FROM MO...')
#1 /Applications/MAMP/htdocs/PPE_NEW/App/Core/Controller/CustomerApiController.php(29): ModelDao->find(0, Object(Search))
#2 [internal function]: CustomerApiController->get_model('014a0e23CL52', 'x', 38)
#3 /Applications/MAMP/htdocs/PPE_NEW/App/Core/Controller/Dispatcher.php(58): ReflectionMethod->invokeArgs(Object(CustomerApiController), Array)
#4 /Applications/MAMP/htdocs/PPE_NEW/main.php(41): Dispatcher::deliver()
#5 {main}

