06:10:31 - ::1:
SQLSTATE[42000]: Syntax error or access violation: 1064 You have an error in your SQL syntax; check the manual that corresponds to your MySQL server version for the right syntax to use near '
                                        ,"
                                    ' at line 7
#0 /Applications/MAMP/htdocs/PPE_NEW/App/Core/Model/ContratDAO.php(66): PDO->query('INSERT INTO con...')
#1 /Applications/MAMP/htdocs/PPE_NEW/App/Core/Controller/EspaceAssureController.php(115): ContratDAO->create(Object(Contrat))
#2 /Applications/MAMP/htdocs/PPE_NEW/App/Core/Controller/EspaceAssureController.php(118): EspaceAssureController->{closure}()
#3 /Applications/MAMP/htdocs/PPE_NEW/App/Core/Controller/Dispatcher.php(60): EspaceAssureController->nouveau_contrat()
#4 /Applications/MAMP/htdocs/PPE_NEW/index.php(41): Dispatcher::deliver()
#5 {main}

06:10:17 - ::1:
SQLSTATE[42000]: Syntax error or access violation: 1064 You have an error in your SQL syntax; check the manual that corresponds to your MySQL server version for the right syntax to use near '
                                         ,"
                                   ' at line 7
#0 /Applications/MAMP/htdocs/PPE_NEW/App/Core/Model/ContratDAO.php(67): PDO->query('INSERT INTO con...')
#1 /Applications/MAMP/htdocs/PPE_NEW/App/Core/Controller/EspaceAssureController.php(115): ContratDAO->create(Object(Contrat))
#2 /Applications/MAMP/htdocs/PPE_NEW/App/Core/Controller/EspaceAssureController.php(118): EspaceAssureController->{closure}()
#3 /Applications/MAMP/htdocs/PPE_NEW/App/Core/Controller/Dispatcher.php(60): EspaceAssureController->nouveau_contrat()
#4 /Applications/MAMP/htdocs/PPE_NEW/index.php(41): Dispatcher::deliver()
#5 {main}

06:10:17 - ::1:
SQLSTATE[42000]: Syntax error or access violation: 1064 You have an error in your SQL syntax; check the manual that corresponds to your MySQL server version for the right syntax to use near '
                                         ,"
                                   ' at line 7
#0 /Applications/MAMP/htdocs/PPE_NEW/App/Core/Model/ContratDAO.php(67): PDO->query('INSERT INTO con...')
#1 /Applications/MAMP/htdocs/PPE_NEW/App/Core/Controller/EspaceAssureController.php(115): ContratDAO->create(Object(Contrat))
#2 /Applications/MAMP/htdocs/PPE_NEW/App/Core/Controller/EspaceAssureController.php(118): EspaceAssureController->{closure}()
#3 /Applications/MAMP/htdocs/PPE_NEW/App/Core/Controller/Dispatcher.php(60): EspaceAssureController->nouveau_contrat()
#4 /Applications/MAMP/htdocs/PPE_NEW/index.php(41): Dispatcher::deliver()
#5 {main}

06:10:01 - ::1:
SQLSTATE[42000]: Syntax error or access violation: 1064 You have an error in your SQL syntax; check the manual that corresponds to your MySQL server version for the right syntax to use near '
                                         ,"
                                   ' at line 7
#0 /Applications/MAMP/htdocs/PPE_NEW/App/Core/Model/ContratDAO.php(67): PDO->query('INSERT INTO con...')
#1 /Applications/MAMP/htdocs/PPE_NEW/App/Core/Controller/EspaceAssureController.php(115): ContratDAO->create(Object(Contrat))
#2 /Applications/MAMP/htdocs/PPE_NEW/App/Core/Controller/EspaceAssureController.php(118): EspaceAssureController->{closure}()
#3 /Applications/MAMP/htdocs/PPE_NEW/App/Core/Controller/Dispatcher.php(60): EspaceAssureController->nouveau_contrat()
#4 /Applications/MAMP/htdocs/PPE_NEW/index.php(41): Dispatcher::deliver()
#5 {main}

06:10:32 - ::1:
SQLSTATE[42000]: Syntax error or access violation: 1064 You have an error in your SQL syntax; check the manual that corresponds to your MySQL server version for the right syntax to use near '' at line 3
#0 /Applications/MAMP/htdocs/PPE_NEW/App/Core/Model/DAO.php(192): PDO->query('SELECT TIMESTAM...', 7, 1)
#1 /Applications/MAMP/htdocs/PPE_NEW/App/Core/Class/Assure.php(39): DAO->refresh(Object(Assure))
#2 /Applications/MAMP/htdocs/PPE_NEW/App/Core/Controller/Controller.php(19): Assure->hydrate()
#3 /Applications/MAMP/htdocs/PPE_NEW/App/Core/Controller/Dispatcher.php(51): Controller->__destruct()
#4 /Applications/MAMP/htdocs/PPE_NEW/index.php(41): Dispatcher::deliver()
#5 {main}

06:10:18 - ::1:
SQLSTATE[42000]: Syntax error or access violation: 1064 You have an error in your SQL syntax; check the manual that corresponds to your MySQL server version for the right syntax to use near '
                                         ,"
                                   ' at line 7
#0 /Applications/MAMP/htdocs/PPE_NEW/App/Core/Model/ContratDAO.php(67): PDO->query('INSERT INTO con...')
#1 /Applications/MAMP/htdocs/PPE_NEW/App/Core/Controller/EspaceAssureController.php(115): ContratDAO->create(Object(Contrat))
#2 /Applications/MAMP/htdocs/PPE_NEW/App/Core/Controller/EspaceAssureController.php(118): EspaceAssureController->{closure}()
#3 /Applications/MAMP/htdocs/PPE_NEW/App/Core/Controller/Dispatcher.php(60): EspaceAssureController->nouveau_contrat()
#4 /Applications/MAMP/htdocs/PPE_NEW/index.php(41): Dispatcher::deliver()
#5 {main}

06:10:56 - ::1:
SQLSTATE[HY000]: General error: Extraneous additional parameters
#0 /Applications/MAMP/htdocs/PPE_NEW/App/Core/Model/DAO.php(118): PDOStatement->fetchAll(2, 0)
#1 /Applications/MAMP/htdocs/PPE_NEW/index.php(33): DAO::init()
#2 {main}

06:10:17 - ::1:
SQLSTATE[HY000]: General error: Extraneous additional parameters
#0 /Applications/MAMP/htdocs/PPE_NEW/App/Core/Model/DAO.php(68): PDOStatement->fetchAll(2, 0)
#1 /Applications/MAMP/htdocs/PPE_NEW/index.php(33): DAO::init()
#2 {main}

06:10:18 - ::1:
SQLSTATE[HY000]: General error: Extraneous additional parameters
#0 /Applications/MAMP/htdocs/PPE_NEW/App/Core/Model/DAO.php(68): PDOStatement->fetchAll(2, 0)
#1 /Applications/MAMP/htdocs/PPE_NEW/index.php(33): DAO::init()
#2 {main}

06:10:19 - ::1:
SQLSTATE[HY000]: General error: Extraneous additional parameters
#0 /Applications/MAMP/htdocs/PPE_NEW/App/Core/Model/DAO.php(68): PDOStatement->fetchAll(2, 0)
#1 /Applications/MAMP/htdocs/PPE_NEW/index.php(33): DAO::init()
#2 {main}

06:10:34 - ::1:
SQLSTATE[HY000]: General error: Invalid column index
#0 /Applications/MAMP/htdocs/PPE_NEW/App/Core/Model/DAO.php(68): PDOStatement->fetchAll(7, 65536)
#1 /Applications/MAMP/htdocs/PPE_NEW/index.php(33): DAO::init()
#2 {main}

06:10:34 - ::1:
SQLSTATE[HY000]: General error: Invalid column index
#0 /Applications/MAMP/htdocs/PPE_NEW/App/Core/Model/DAO.php(68): PDOStatement->fetchAll(7, 65536)
#1 /Applications/MAMP/htdocs/PPE_NEW/index.php(33): DAO::init()
#2 {main}

06:10:35 - ::1:
SQLSTATE[HY000]: General error: Invalid column index
#0 /Applications/MAMP/htdocs/PPE_NEW/App/Core/Model/DAO.php(68): PDOStatement->fetchAll(7, 65536)
#1 /Applications/MAMP/htdocs/PPE_NEW/index.php(33): DAO::init()
#2 {main}

11:10:34 - ::1:
SQLSTATE[23000]: Integrity constraint violation: 1452 Cannot add or update a child row: a foreign key constraint fails (`aaa`.`vehicule`, CONSTRAINT `vehicule_ibfk_2` FOREIGN KEY (`id_modele`) REFERENCES `Modele` (`id_modele`))
#0 /Applications/MAMP/htdocs/PPE_NEW/App/Core/Model/VehiculeDAO.php(33): PDO->query('INSERT INTO veh...')
#1 /Applications/MAMP/htdocs/PPE_NEW/App/Core/Controller/EspaceAssureController.php(112): VehiculeDAO->create(Object(Vehicule))
#2 /Applications/MAMP/htdocs/PPE_NEW/App/Core/Controller/EspaceAssureController.php(118): EspaceAssureController->{closure}()
#3 /Applications/MAMP/htdocs/PPE_NEW/App/Core/Controller/Dispatcher.php(60): EspaceAssureController->nouveau_contrat()
#4 /Applications/MAMP/htdocs/PPE_NEW/index.php(41): Dispatcher::deliver()
#5 {main}

