03:10:50 - ::1:
SQLSTATE[HY000] [2002] php_network_getaddresses: getaddrinfo failed: nodename nor servname provided, or not known
#0 /Applications/MAMP/htdocs/PPE_NEW/App/Core/Model/Connexion.php(11): PDO->__construct('mysql:host=:888...', 'root', 'root', Array)
#1 /Applications/MAMP/htdocs/PPE_NEW/App/Core/Model/Connexion.php(9): class@anonymous->__construct('mysql:host=:888...', 'root', 'root', Array)
#2 /Applications/MAMP/htdocs/PPE_NEW/App/Core/Model/Connexion.php(22): Connexion->__construct('mysql', ':8888', 8889, 'AAA', 'root', 'root', Array)
#3 /Applications/MAMP/htdocs/PPE_NEW/index.php(33): Connexion::set('mysql', ':8888', 8889, 'AAA', 'root', 'root', Array)
#4 {main}

03:10:22 - 127.0.0.1:
SQLSTATE[HY000] [2002] php_network_getaddresses: getaddrinfo failed: nodename nor servname provided, or not known
#0 /Applications/MAMP/htdocs/PPE_NEW/App/Core/Model/Connexion.php(11): PDO->__construct('mysql:host=:888...', 'root', 'root', Array)
#1 /Applications/MAMP/htdocs/PPE_NEW/App/Core/Model/Connexion.php(9): class@anonymous->__construct('mysql:host=:888...', 'root', 'root', Array)
#2 /Applications/MAMP/htdocs/PPE_NEW/App/Core/Model/Connexion.php(22): Connexion->__construct('mysql', ':8888', 8889, 'AAA', 'root', 'root', Array)
#3 /Applications/MAMP/htdocs/PPE_NEW/index.php(33): Connexion::set('mysql', ':8888', 8889, 'AAA', 'root', 'root', Array)
#4 {main}

03:10:21 - 127.0.0.1:
SQLSTATE[HY000] [2002] php_network_getaddresses: getaddrinfo failed: nodename nor servname provided, or not known
#0 /Applications/MAMP/htdocs/PPE_NEW/App/Core/Model/Connexion.php(11): PDO->__construct('mysql:host=:888...', 'root', 'root', Array)
#1 /Applications/MAMP/htdocs/PPE_NEW/App/Core/Model/Connexion.php(9): class@anonymous->__construct('mysql:host=:888...', 'root', 'root', Array)
#2 /Applications/MAMP/htdocs/PPE_NEW/App/Core/Model/Connexion.php(22): Connexion->__construct('mysql', ':8888', 8889, 'AAA', 'root', 'root', Array)
#3 /Applications/MAMP/htdocs/PPE_NEW/index.php(33): Connexion::set('mysql', ':8888', 8889, 'AAA', 'root', 'root', Array)
#4 {main}

04:10:53 - 127.0.0.1:
SQLSTATE[HY000] [2002] php_network_getaddresses: getaddrinfo failed: nodename nor servname provided, or not known
#0 /Applications/MAMP/htdocs/PPE_NEW/App/Core/Model/Connexion.php(11): PDO->__construct('mysql:host=:888...', 'root', 'root', Array)
#1 /Applications/MAMP/htdocs/PPE_NEW/App/Core/Model/Connexion.php(9): class@anonymous->__construct('mysql:host=:888...', 'root', 'root', Array)
#2 /Applications/MAMP/htdocs/PPE_NEW/App/Core/Model/Connexion.php(22): Connexion->__construct('mysql', ':8888', 8889, 'AAA', 'root', 'root', Array)
#3 /Applications/MAMP/htdocs/PPE_NEW/index.php(33): Connexion::set('mysql', ':8888', 8889, 'AAA', 'root', 'root', Array)
#4 {main}

04:10:54 - 127.0.0.1:
SQLSTATE[HY000] [2002] php_network_getaddresses: getaddrinfo failed: nodename nor servname provided, or not known
#0 /Applications/MAMP/htdocs/PPE_NEW/App/Core/Model/Connexion.php(11): PDO->__construct('mysql:host=:888...', 'root', 'root', Array)
#1 /Applications/MAMP/htdocs/PPE_NEW/App/Core/Model/Connexion.php(9): class@anonymous->__construct('mysql:host=:888...', 'root', 'root', Array)
#2 /Applications/MAMP/htdocs/PPE_NEW/App/Core/Model/Connexion.php(22): Connexion->__construct('mysql', ':8888', 8889, 'AAA', 'root', 'root', Array)
#3 /Applications/MAMP/htdocs/PPE_NEW/index.php(33): Connexion::set('mysql', ':8888', 8889, 'AAA', 'root', 'root', Array)
#4 {main}

04:10:55 - 127.0.0.1:
SQLSTATE[HY000] [2002] php_network_getaddresses: getaddrinfo failed: nodename nor servname provided, or not known
#0 /Applications/MAMP/htdocs/PPE_NEW/App/Core/Model/Connexion.php(11): PDO->__construct('mysql:host=:888...', 'root', 'root', Array)
#1 /Applications/MAMP/htdocs/PPE_NEW/App/Core/Model/Connexion.php(9): class@anonymous->__construct('mysql:host=:888...', 'root', 'root', Array)
#2 /Applications/MAMP/htdocs/PPE_NEW/App/Core/Model/Connexion.php(22): Connexion->__construct('mysql', ':8888', 8889, 'AAA', 'root', 'root', Array)
#3 /Applications/MAMP/htdocs/PPE_NEW/index.php(33): Connexion::set('mysql', ':8888', 8889, 'AAA', 'root', 'root', Array)
#4 {main}

04:10:55 - 127.0.0.1:
SQLSTATE[HY000] [2002] php_network_getaddresses: getaddrinfo failed: nodename nor servname provided, or not known
#0 /Applications/MAMP/htdocs/PPE_NEW/App/Core/Model/Connexion.php(11): PDO->__construct('mysql:host=:888...', 'root', 'root', Array)
#1 /Applications/MAMP/htdocs/PPE_NEW/App/Core/Model/Connexion.php(9): class@anonymous->__construct('mysql:host=:888...', 'root', 'root', Array)
#2 /Applications/MAMP/htdocs/PPE_NEW/App/Core/Model/Connexion.php(22): Connexion->__construct('mysql', ':8888', 8889, 'AAA', 'root', 'root', Array)
#3 /Applications/MAMP/htdocs/PPE_NEW/index.php(33): Connexion::set('mysql', ':8888', 8889, 'AAA', 'root', 'root', Array)
#4 {main}

04:10:56 - 127.0.0.1:
SQLSTATE[HY000] [2002] php_network_getaddresses: getaddrinfo failed: nodename nor servname provided, or not known
#0 /Applications/MAMP/htdocs/PPE_NEW/App/Core/Model/Connexion.php(11): PDO->__construct('mysql:host=:888...', 'root', 'root', Array)
#1 /Applications/MAMP/htdocs/PPE_NEW/App/Core/Model/Connexion.php(9): class@anonymous->__construct('mysql:host=:888...', 'root', 'root', Array)
#2 /Applications/MAMP/htdocs/PPE_NEW/App/Core/Model/Connexion.php(22): Connexion->__construct('mysql', ':8888', 8889, 'AAA', 'root', 'root', Array)
#3 /Applications/MAMP/htdocs/PPE_NEW/index.php(33): Connexion::set('mysql', ':8888', 8889, 'AAA', 'root', 'root', Array)
#4 {main}

04:10:57 - 127.0.0.1:
SQLSTATE[HY000] [2002] php_network_getaddresses: getaddrinfo failed: nodename nor servname provided, or not known
#0 /Applications/MAMP/htdocs/PPE_NEW/App/Core/Model/Connexion.php(11): PDO->__construct('mysql:host=:888...', 'root', 'root', Array)
#1 /Applications/MAMP/htdocs/PPE_NEW/App/Core/Model/Connexion.php(9): class@anonymous->__construct('mysql:host=:888...', 'root', 'root', Array)
#2 /Applications/MAMP/htdocs/PPE_NEW/App/Core/Model/Connexion.php(22): Connexion->__construct('mysql', ':8888', 8889, 'AAA', 'root', 'root', Array)
#3 /Applications/MAMP/htdocs/PPE_NEW/index.php(33): Connexion::set('mysql', ':8888', 8889, 'AAA', 'root', 'root', Array)
#4 {main}

04:10:57 - 127.0.0.1:
SQLSTATE[HY000] [2002] php_network_getaddresses: getaddrinfo failed: nodename nor servname provided, or not known
#0 /Applications/MAMP/htdocs/PPE_NEW/App/Core/Model/Connexion.php(11): PDO->__construct('mysql:host=:888...', 'root', 'root', Array)
#1 /Applications/MAMP/htdocs/PPE_NEW/App/Core/Model/Connexion.php(9): class@anonymous->__construct('mysql:host=:888...', 'root', 'root', Array)
#2 /Applications/MAMP/htdocs/PPE_NEW/App/Core/Model/Connexion.php(22): Connexion->__construct('mysql', ':8888', 8889, 'AAA', 'root', 'root', Array)
#3 /Applications/MAMP/htdocs/PPE_NEW/index.php(33): Connexion::set('mysql', ':8888', 8889, 'AAA', 'root', 'root', Array)
#4 {main}

04:10:58 - 127.0.0.1:
SQLSTATE[HY000] [2002] php_network_getaddresses: getaddrinfo failed: nodename nor servname provided, or not known
#0 /Applications/MAMP/htdocs/PPE_NEW/App/Core/Model/Connexion.php(11): PDO->__construct('mysql:host=:888...', 'root', 'root', Array)
#1 /Applications/MAMP/htdocs/PPE_NEW/App/Core/Model/Connexion.php(9): class@anonymous->__construct('mysql:host=:888...', 'root', 'root', Array)
#2 /Applications/MAMP/htdocs/PPE_NEW/App/Core/Model/Connexion.php(22): Connexion->__construct('mysql', ':8888', 8889, 'AAA', 'root', 'root', Array)
#3 /Applications/MAMP/htdocs/PPE_NEW/index.php(33): Connexion::set('mysql', ':8888', 8889, 'AAA', 'root', 'root', Array)
#4 {main}

04:10:58 - 127.0.0.1:
SQLSTATE[HY000] [2002] php_network_getaddresses: getaddrinfo failed: nodename nor servname provided, or not known
#0 /Applications/MAMP/htdocs/PPE_NEW/App/Core/Model/Connexion.php(11): PDO->__construct('mysql:host=:888...', 'root', 'root', Array)
#1 /Applications/MAMP/htdocs/PPE_NEW/App/Core/Model/Connexion.php(9): class@anonymous->__construct('mysql:host=:888...', 'root', 'root', Array)
#2 /Applications/MAMP/htdocs/PPE_NEW/App/Core/Model/Connexion.php(22): Connexion->__construct('mysql', ':8888', 8889, 'AAA', 'root', 'root', Array)
#3 /Applications/MAMP/htdocs/PPE_NEW/index.php(33): Connexion::set('mysql', ':8888', 8889, 'AAA', 'root', 'root', Array)
#4 {main}

04:10:07 - 127.0.0.1:
SQLSTATE[HY000] [2002] php_network_getaddresses: getaddrinfo failed: nodename nor servname provided, or not known
#0 /Applications/MAMP/htdocs/PPE_NEW/App/Core/Model/Connexion.php(11): PDO->__construct('mysql:host=:888...', 'root', 'root', Array)
#1 /Applications/MAMP/htdocs/PPE_NEW/App/Core/Model/Connexion.php(9): class@anonymous->__construct('mysql:host=:888...', 'root', 'root', Array)
#2 /Applications/MAMP/htdocs/PPE_NEW/App/Core/Model/Connexion.php(22): Connexion->__construct('mysql', ':8888', 8889, 'AAA', 'root', 'root', Array)
#3 /Applications/MAMP/htdocs/PPE_NEW/index.php(33): Connexion::set('mysql', ':8888', 8889, 'AAA', 'root', 'root', Array)
#4 {main}

04:10:59 - 127.0.0.1:
SQLSTATE[HY000] [2002] php_network_getaddresses: getaddrinfo failed: nodename nor servname provided, or not known
#0 /Applications/MAMP/htdocs/PPE_NEW/App/Core/Model/Connexion.php(11): PDO->__construct('mysql:host=:888...', 'root', 'root', Array)
#1 /Applications/MAMP/htdocs/PPE_NEW/App/Core/Model/Connexion.php(9): class@anonymous->__construct('mysql:host=:888...', 'root', 'root', Array)
#2 /Applications/MAMP/htdocs/PPE_NEW/App/Core/Model/Connexion.php(22): Connexion->__construct('mysql', ':8888', 8889, 'AAA', 'root', 'root', Array)
#3 /Applications/MAMP/htdocs/PPE_NEW/main.php(33): Connexion::set('mysql', ':8888', 8889, 'AAA', 'root', 'root', Array)
#4 {main}

04:10:00 - 127.0.0.1:
SQLSTATE[HY000] [2002] php_network_getaddresses: getaddrinfo failed: nodename nor servname provided, or not known
#0 /Applications/MAMP/htdocs/PPE_NEW/App/Core/Model/Connexion.php(11): PDO->__construct('mysql:host=:888...', 'root', 'root', Array)
#1 /Applications/MAMP/htdocs/PPE_NEW/App/Core/Model/Connexion.php(9): class@anonymous->__construct('mysql:host=:888...', 'root', 'root', Array)
#2 /Applications/MAMP/htdocs/PPE_NEW/App/Core/Model/Connexion.php(22): Connexion->__construct('mysql', ':8888', 8889, 'AAA', 'root', 'root', Array)
#3 /Applications/MAMP/htdocs/PPE_NEW/main.php(33): Connexion::set('mysql', ':8888', 8889, 'AAA', 'root', 'root', Array)
#4 {main}

04:10:17 - 127.0.0.1:
SQLSTATE[HY000] [2002] php_network_getaddresses: getaddrinfo failed: nodename nor servname provided, or not known
#0 /Applications/MAMP/htdocs/PPE_NEW/App/Core/Model/Connexion.php(11): PDO->__construct('mysql:host=:888...', 'root', 'root', Array)
#1 /Applications/MAMP/htdocs/PPE_NEW/App/Core/Model/Connexion.php(9): class@anonymous->__construct('mysql:host=:888...', 'root', 'root', Array)
#2 /Applications/MAMP/htdocs/PPE_NEW/App/Core/Model/Connexion.php(22): Connexion->__construct('mysql', ':8888', 8889, 'AAA', 'root', 'root', Array)
#3 /Applications/MAMP/htdocs/PPE_NEW/main.php(33): Connexion::set('mysql', ':8888', 8889, 'AAA', 'root', 'root', Array)
#4 {main}

04:10:48 - 127.0.0.1:
SQLSTATE[HY000] [2002] php_network_getaddresses: getaddrinfo failed: nodename nor servname provided, or not known
#0 /Applications/MAMP/htdocs/PPE_NEW/App/Core/Model/Connexion.php(11): PDO->__construct('mysql:host=:888...', 'root', 'root', Array)
#1 /Applications/MAMP/htdocs/PPE_NEW/App/Core/Model/Connexion.php(9): class@anonymous->__construct('mysql:host=:888...', 'root', 'root', Array)
#2 /Applications/MAMP/htdocs/PPE_NEW/App/Core/Model/Connexion.php(22): Connexion->__construct('mysql', ':8888', 8889, 'AAA', 'root', 'root', Array)
#3 /Applications/MAMP/htdocs/PPE_NEW/main.php(33): Connexion::set('mysql', ':8888', 8889, 'AAA', 'root', 'root', Array)
#4 {main}

04:10:06 - ::1:
SQLSTATE[HY000] [2006] MySQL server has gone away
#0 /Applications/MAMP/htdocs/PPE_NEW/App/Core/Model/Connexion.php(11): PDO->__construct('mysql:host=loca...', 'root', 'root', Array)
#1 /Applications/MAMP/htdocs/PPE_NEW/App/Core/Model/Connexion.php(9): class@anonymous->__construct('mysql:host=loca...', 'root', 'root', Array)
#2 /Applications/MAMP/htdocs/PPE_NEW/App/Core/Model/Connexion.php(22): Connexion->__construct('mysql', 'localhost:8888', 8889, 'AAA', 'root', 'root', Array)
#3 /Applications/MAMP/htdocs/PPE_NEW/main.php(33): Connexion::set('mysql', 'localhost:8888', 8889, 'AAA', 'root', 'root', Array)
#4 {main}

